<?xml version="1.0" encoding="utf-8"?>
<!-- Generator: Adobe Illustrator 25.2.1, SVG Export Plug-In . SVG Version: 6.00 Build 0)  -->
<svg version="1.1" id="Layer_1" xmlns="http://www.w3.org/2000/svg" xmlns:xlink="http://www.w3.org/1999/xlink" x="0px" y="0px"
	 viewBox="0 0 8 16" width="8" height="16" style="enable-background:new 0 0 8 16;" xml:space="preserve">
<style type="text/css">
	.st0{fill:#DEDEDE;}
	.st1{fill:#FF0000;}
	.st2{fill:#0000DE;}
</style>
<rect width="8" height="16"/>
<path class="st0" d="M0,10v3h1v1h1v1h1v1h1v-1h1v-1h1v-1h1v-3H0z M6,12H5v1H4v1H3v-1H2v-1H1v-1h1v1h1v1h1v-1h1v-1h1V12z"/>
<rect y="4" class="st0" width="7" height="1"/>
<rect y="5" class="st1" width="7" height="2"/>
<rect y="7" class="st0" width="7" height="1"/>
<rect y="8" class="st1" width="7" height="2"/>
<rect x="1" y="11" class="st2" width="1" height="1"/>
<rect x="2" y="12" class="st2" width="1" height="1"/>
<rect x="3" y="13" class="st2" width="1" height="1"/>
<rect x="4" y="12" class="st2" width="1" height="1"/>
<rect x="5" y="11" class="st2" width="1" height="1"/>
</svg>
